o.T. (carré noir)
…
grid <-
  expand_grid(
    x = seq(0,
      by = perimeter_width,
      length.out = nrow
    ),
    y = seq(0,
      by = perimeter_width,
      length.out = ncol
    )
  )

grid

# A tibble: 100 × 2
       x     y
   <dbl> <dbl>
 1     0  0   
 2     0  1.25
 3     0  2.5 
 4     0  3.75
 5     0  5   
 6     0  6.25
 7     0  7.5 
 8     0  8.75
 9     0 10   
10     0 11.2 
# ℹ 90 more rows
…
grid

# A tibble: 100 × 2
       x     y
   <dbl> <dbl>
 1     0  0   
 2     0  1.25
 3     0  2.5 
 4     0  3.75
 5     0  5   
 6     0  6.25
 7     0  7.5 
 8     0  8.75
 9     0 10   
10     0 11.2 
# ℹ 90 more rows
…
