Infinite Truchet
…
    return(params_grid)
  }

Applying our system

output_grid <-
  truchet_tiles(seed = 150)

output_grid

# A tibble: 64 × 5
      x0    y0 start   end num_arcs
   <dbl> <dbl> <dbl> <dbl>    <dbl>
 1     0     0  0     1.57        3
 2    15     0  4.71  6.28        4
 3    15    15  3.14  4.71        3
 4     0    15  1.57  3.14        4
 5    15     0  0     1.57        5
 6    30     0  4.71  6.28        2
 7    30    15  3.14  4.71        5
 8    15    15  1.57  3.14        2
 9    30     0  0     1.57        3
10    45     0  4.71  6.28        4
# ℹ 54 more rows
…
    return(output)
  }

Applying our system

output_grid <-
  truchet_tiles(
    seed = 150,
    color1 = "#fffbe6",
    color2 = "#fc8405"
  )

output_grid

# A tibble: 224 × 8
      x0    y0 start   end num_arcs    r0     r color  
   <dbl> <dbl> <dbl> <dbl>    <dbl> <dbl> <dbl> <chr>  
 1     0     0  0     1.57        3     1     2 #fffbe6
 2     0     0  0     1.57        3     3     4 #fc8405
 3     0     0  0     1.57        3     5     6 #fffbe6
 4    15     0  4.71  6.28        4     1     2 #fffbe6
 5    15     0  4.71  6.28        4     3     4 #fc8405
 6    15     0  4.71  6.28        4     5     6 #fffbe6
 7    15     0  4.71  6.28        4     7     8 #fc8405
 8    15    15  3.14  4.71        3     1     2 #fffbe6
 9    15    15  3.14  4.71        3     3     4 #fc8405
10    15    15  3.14  4.71        3     5     6 #fffbe6
# ℹ 214 more rows
…
